Get started with SAVM • SAVM
…
#> 5         5 13.111403         13.111403 POINT (-8794324 5275974)
#> 6         6 12.380803         12.380803 POINT (-8791605 5275909)
#> 7         7 11.437303         11.437303 POINT (-8788886 5275843)
#> 8         8 10.087690         10.087690 POINT (-8786166 5275776)
#> 9         9 14.375036         14.375036 POINT (-8799700 5278832)
#> 10       10 14.236961         14.236961 POINT (-8796980 5278768)
#> 
#> $transect_lines
#> Simple feature collection with 736 features and 6 fields
#> Geometry type: LINESTRING
#> Dimension:     XYZ
#> Bounding box:  xmin: -8817296 ymin: 5262180 xmax: -8777847 ymax: 5297596
#> z_range:       zmin: 0 zmax: 0
#> Projected CRS: WGS 84 / Pseudo-Mercator
#> # A tibble: 736 × 7
#> # Groups:   id_point [46]
#>    id_point direction weight OBJECTID_1                                 geometry
#>  *    <int>     <dbl>  <dbl>      <dbl>                         <LINESTRING [m]>
#>  1        1       0        1          0 Z (-8794389 5273245 0, -8784003 5273245…
#>  2        1      22.5      1          0 Z (-8794389 5273245 0, -8780530 5278985…
#>  3        1      45        1          0 Z (-8794389 5273245 0, -8783782 5283852…
#>  4        1      67.5      1          0 Z (-8794389 5273245 0, -8788648 5287103…
#>  5        1      90        1          0 Z (-8794389 5273245 0, -8794389 5288245…
#>  6        1     112.       1          0 Z (-8800129 5287103 0, -8794389 5273245…
#>  7        1     135        1          0 Z (-8804995 5283852 0, -8794389 5273245…
#>  8        1     158.       1          0 Z (-8808247 5278985 0, -8794389 5273245…
#>  9        1     180        1          0 Z (-8809389 5273245 0, -8794389 5273245…
#> 10        1     202.       1          0 Z (-8808247 5267505 0, -8794389 5273245…
#> # ℹ 726 more rows
#> # ℹ 2 more variables: transect_length [m], rank <int>
…
